{
  "status": 200,
  "meta": {
    "object": "client",
    "pagination": {
      "total_records": 188,
      "total_pages": 10,
      "per_page": 20,
      "current_page": 1
    }
  },
  "data": [
    {
      "id": "ad03aba3-ec2b-483e-8864-1a637ea3d01d",
      "public_id": 1,
      "custom_id": "",
      "name": "Leticia Rodríguez González",
      "email": "",
      "password": null,
      "address": "5 de Mayo",
      "phone": "",
      "phone_mobile": "+529372701413",
      "phone_mobile_verified": true,
      "national_identification_number": "",
      "city": "",
      "state": "",
      "details": "",
      "collector_id": null,
      "seller_id": null,
      "neighborhood_id": null,
      "created_at": "2021-10-27T07:46:48.464-05:00",
      "updated_at": "2021-11-17T14:08:27.661-06:00"
    },
    {
      "id": "0ff96de0-4d95-43b6-9280-c98ee621c120",
      "public_id": 2,
      "custom_id": "",
      "name": "Sergio ??? (Yuridia)",
      "email": "",
      "password": null,
      "address": "5 de Mayo",
      "phone": "",
      "phone_mobile": "",
      "phone_mobile_verified": false,
      "national_identification_number": "",
      "city": "",
      "state": "",
      "details": "",
      "collector_id": null,
      "seller_id": null,
      "neighborhood_id": null,
      "created_at": "2021-10-27T07:46:48.836-05:00",
      "updated_at": "2021-11-08T10:10:45.739-06:00"
    },
    {
      "id": "4d569501-d32d-46c1-861f-dd85baeb8393",
      "public_id": 5,
      "custom_id": "",
      "name": "Juan Morales",
      "email": "",
      "password": null,
      "address": "5 de Mayo",
      "phone": "",
      "phone_mobile": "+529371181983",
      "phone_mobile_verified": false,
      "national_identification_number": "",
      "city": "",
      "state": "",
      "details": "",
      "collector_id": null,
      "seller_id": null,
      "neighborhood_id": null,
      "created_at": "2021-10-27T07:46:49.061-05:00",
      "updated_at": "2022-02-01T14:43:43.370-06:00"
    },
    {
      "id": "007f2e5d-b32c-409a-bd95-0ed989cd95d8",
      "public_id": 6,
      "custom_id": "",
      "name": "Jose Morales Panadero",
      "email": "",
      "password": null,
      "address": "Calzada 2da",
      "phone": "",
      "phone_mobile": "+529371208077",
      "phone_mobile_verified": true,
      "national_identification_number": "",
      "city": "",
      "state": "",
      "details": "",
      "collector_id": null,
      "seller_id": null,
      "neighborhood_id": null,
      "created_at": "2021-10-27T07:46:49.203-05:00",
      "updated_at": "2021-11-17T14:17:55.966-06:00"
    },
    {
      "id": "d4baf437-14af-4554-92f7-cee3e3732a3d",
      "public_id": 7,
      "custom_id": "",
      "name": "Maria Rosario Hernández Torres",
      "email": "",
      "password": null,
      "address": "Calzada 2da",
      "phone": "",
      "phone_mobile": "+529842387410",
      "phone_mobile_verified": true,
      "national_identification_number": "",
      "city": "",
      "state": "",
      "details": "",
      "collector_id": null,
      "seller_id": null,
      "neighborhood_id": null,
      "created_at": "2021-10-27T07:46:49.299-05:00",
      "updated_at": "2021-11-17T14:18:23.480-06:00"
    },
    {
      "id": "67691336-ce50-49d6-8263-e6f811e89ead",
      "public_id": 8,
      "custom_id": "",
      "name": "José Alfredo Jiménez",
      "email": "",
      "password": null,
      "address": "Mantilla",
      "phone": "",
      "phone_mobile": "+529371187960",
      "phone_mobile_verified": true,
      "national_identification_number": "",
      "city": "",
      "state": "",
      "details": "",
      "collector_id": null,
      "seller_id": null,
      "neighborhood_id": null,
      "created_at": "2021-10-27T07:46:49.401-05:00",
      "updated_at": "2021-11-18T16:26:41.034-06:00"
    },
    {
      "id": "f9807114-f160-49bb-89e2-60ee093c67c6",
      "public_id": 9,
      "custom_id": "",
      "name": "Laura Cristel López Marín",
      "email": "",
      "password": null,
      "address": "Calzada 2da",
      "phone": "",
      "phone_mobile": "+529371531995",
      "phone_mobile_verified": false,
      "national_identification_number": "",
      "city": "",
      "state": "",
      "details": "",
      "collector_id": null,
      "seller_id": null,
      "neighborhood_id": null,
      "created_at": "2021-10-27T07:46:49.498-05:00",
      "updated_at": "2022-02-01T14:46:55.685-06:00"
    },
    {
      "id": "5f9ee77b-fe9d-4637-9d93-fa9d578d79d1",
      "public_id": 10,
      "custom_id": "",
      "name": "José Alberto Hernández Rodríguez",
      "email": "",
      "password": null,
      "address": "Calzada 2da",
      "phone": "",
      "phone_mobile": "+529372727457",
      "phone_mobile_verified": true,
      "national_identification_number": "",
      "city": "",
      "state": "",
      "details": "",
      "collector_id": null,
      "seller_id": null,
      "neighborhood_id": null,
      "created_at": "2021-10-27T07:46:49.598-05:00",
      "updated_at": "2021-11-17T14:11:19.739-06:00"
    },
    {
      "id": "91e0579b-4dc0-4b1d-844c-c45fbeb3b37b",
      "public_id": 11,
      "custom_id": "",
      "name": "Marina González Domínguez",
      "email": "",
      "password": null,
      "address": "Calzada",
      "phone": "",
      "phone_mobile": "+529372274646",
      "phone_mobile_verified": true,
      "national_identification_number": "",
      "city": "",
      "state": "",
      "details": "",
      "collector_id": null,
      "seller_id": null,
      "neighborhood_id": null,
      "created_at": "2021-10-27T07:46:49.701-05:00",
      "updated_at": "2021-11-11T15:27:47.405-06:00"
    },
    {
      "id": "796fd710-1947-41c1-9243-e2140e582cc4",
      "public_id": 12,
      "custom_id": "",
      "name": "Tomasa Hernández San.",
      "email": "",
      "password": null,
      "address": "5 de Mayo",
      "phone": "",
      "phone_mobile": "+529992736741",
      "phone_mobile_verified": true,
      "national_identification_number": "",
      "city": "",
      "state": "",
      "details": "",
      "collector_id": null,
      "seller_id": null,
      "neighborhood_id": null,
      "created_at": "2021-10-27T07:46:49.794-05:00",
      "updated_at": "2021-11-17T14:19:00.457-06:00"
    },
    {
      "id": "e40da33d-64ba-4293-8ec1-f0534b39c896",
      "public_id": 13,
      "custom_id": "",
      "name": "Linda Gómez",
      "email": "",
      "password": null,
      "address": "Mantilla",
      "phone": "",
      "phone_mobile": "+529372833065",
      "phone_mobile_verified": true,
      "national_identification_number": "",
      "city": "",
      "state": "",
      "details": "",
      "collector_id": null,
      "seller_id": null,
      "neighborhood_id": null,
      "created_at": "2021-10-27T07:46:49.953-05:00",
      "updated_at": "2021-11-12T11:54:16.842-06:00"
    },
    {
      "id": "3c9b8c03-6ce9-4c9a-887a-140f787c9502",
      "public_id": 14,
      "custom_id": "",
      "name": "Viki Jiménez",
      "email": "",
      "password": null,
      "address": "",
      "phone": "",
      "phone_mobile": "+529371231132",
      "phone_mobile_verified": true,
      "national_identification_number": "",
      "city": "",
      "state": "",
      "details": "",
      "collector_id": null,
      "seller_id": null,
      "neighborhood_id": null,
      "created_at": "2021-10-27T07:46:50.054-05:00",
      "updated_at": "2021-11-17T14:19:30.522-06:00"
    },
    {
      "id": "3088ef29-22c4-40a1-99b5-3d58acd65e21",
      "public_id": 15,
      "custom_id": "",
      "name": "María Edith Jiménez Acopa",
      "email": "",
      "password": null,
      "address": "Mantilla",
      "phone": "",
      "phone_mobile": "+529371245086",
      "phone_mobile_verified": false,
      "national_identification_number": "",
      "city": "",
      "state": "",
      "details": "",
      "collector_id": null,
      "seller_id": null,
      "neighborhood_id": null,
      "created_at": "2021-10-27T07:46:50.154-05:00",
      "updated_at": "2022-02-01T14:43:15.362-06:00"
    },
    {
      "id": "376ce8b2-7aa3-4457-a641-97c8af16caee",
      "public_id": 16,
      "custom_id": "",
      "name": "Yeni del Carmen Acopa",
      "email": "",
      "password": null,
      "address": "Mantilla",
      "phone": "",
      "phone_mobile": "+529984862205",
      "phone_mobile_verified": true,
      "national_identification_number": "",
      "city": "",
      "state": "",
      "details": "",
      "collector_id": null,
      "seller_id": null,
      "neighborhood_id": null,
      "created_at": "2021-10-27T07:46:50.255-05:00",
      "updated_at": "2021-12-30T15:15:02.644-06:00"
    },
    {
      "id": "f34afb62-7155-47c5-ac7e-02188e41f2e1",
      "public_id": 17,
      "custom_id": "",
      "name": "Porfirio Moreno Ramos (Tienda)",
      "email": "",
      "password": null,
      "address": "Calzada 2da",
      "phone": "",
      "phone_mobile": "+529372295772",
      "phone_mobile_verified": false,
      "national_identification_number": "",
      "city": "",
      "state": "",
      "details": "",
      "collector_id": null,
      "seller_id": null,
      "neighborhood_id": null,
      "created_at": "2021-10-27T07:46:50.285-05:00",
      "updated_at": "2022-02-01T14:43:24.252-06:00"
    },
    {
      "id": "b734ba51-6fa0-4b08-b18e-bc2e33f318ad",
      "public_id": 18,
      "custom_id": "",
      "name": "Miguel Flores Ramos (Braulia)",
      "email": "",
      "password": null,
      "address": "5 de Mayo",
      "phone": "",
      "phone_mobile": "+529371008913",
      "phone_mobile_verified": true,
      "national_identification_number": "",
      "city": "",
      "state": "",
      "details": "",
      "collector_id": null,
      "seller_id": null,
      "neighborhood_id": null,
      "created_at": "2021-10-27T07:46:50.380-05:00",
      "updated_at": "2021-11-17T14:20:30.549-06:00"
    },
    {
      "id": "64546961-4fba-4539-93b6-aff9c1cf1109",
      "public_id": 19,
      "custom_id": "",
      "name": "Devora González González",
      "email": "",
      "password": null,
      "address": "5 de Mayo",
      "phone": "",
      "phone_mobile": "+529934367874",
      "phone_mobile_verified": false,
      "national_identification_number": "",
      "city": "",
      "state": "",
      "details": "",
      "collector_id": null,
      "seller_id": null,
      "neighborhood_id": null,
      "created_at": "2021-10-27T07:46:50.473-05:00",
      "updated_at": "2022-02-04T09:48:00.563-06:00"
    },
    {
      "id": "7738067a-c0bc-4306-9bf9-11ab789270e9",
      "public_id": 20,
      "custom_id": "",
      "name": "Adid González",
      "email": "",
      "password": null,
      "address": "Mantilla",
      "phone": "",
      "phone_mobile": "+529371311969",
      "phone_mobile_verified": false,
      "national_identification_number": "",
      "city": "",
      "state": "",
      "details": "",
      "collector_id": null,
      "seller_id": null,
      "neighborhood_id": null,
      "created_at": "2021-10-27T07:46:50.606-05:00",
      "updated_at": "2022-02-01T14:46:55.877-06:00"
    },
    {
      "id": "155170a7-ec98-4a57-96d0-84bcbe2e28d2",
      "public_id": 21,
      "custom_id": "",
      "name": "Yoli Sanchez",
      "email": "",
      "password": null,
      "address": "Mantilla",
      "phone": "",
      "phone_mobile": "+529371396684",
      "phone_mobile_verified": true,
      "national_identification_number": "",
      "city": "",
      "state": "",
      "details": "",
      "collector_id": null,
      "seller_id": null,
      "neighborhood_id": null,
      "created_at": "2021-10-27T07:46:50.708-05:00",
      "updated_at": "2022-02-04T10:23:23.397-06:00"
    },
    {
      "id": "88fa046b-b516-4e9d-9b50-42e857719516",
      "public_id": 22,
      "custom_id": "",
      "name": "Don Pancho",
      "email": "",
      "password": null,
      "address": "Mantilla",
      "phone": "",
      "phone_mobile": "",
      "phone_mobile_verified": false,
      "national_identification_number": "",
      "city": "",
      "state": "",
      "details": "",
      "collector_id": null,
      "seller_id": null,
      "neighborhood_id": null,
      "created_at": "2021-10-27T07:46:50.800-05:00",
      "updated_at": "2021-11-12T10:08:58.565-06:00"
    }
  ]
}