{
  "status": 200,
  "meta": {
    "object": "contract",
    "pagination": {
      "total_records": 189,
      "total_pages": 10,
      "per_page": 20,
      "current_page": 1
    }
  },
  "data": [
    {
      "id": "e6c9ee10-63b9-4dda-ae74-125794affa5d",
      "public_id": 1,
      "plan_id": "d6947884-bbff-493f-a726-3573999aa9c7",
      "client_id": "ad03aba3-ec2b-483e-8864-1a637ea3d01d",
      "server_configuration_id": "9e80aee9-f048-423f-82ed-5a5d349f8744",
      "state": "enabled",
      "start_date": "2021-10-27",
      "ip": "192.168.6.110",
      "netmask": "255.255.255.255",
      "mac_address": "7C:1C:F1:6D:B0:7F",
      "coverage_id": null,
      "node_id": null,
      "node_name": null,
      "cpe_port": "80",
      "cpe_protocol": "http",
      "ceil_dfl_percent": 70,
      "pppoe_enabled": false,
      "pppoe_username": "",
      "pppoe_password": "",
      "ppp_profile_id": null,
      "dhcp_enabled": true,
      "dhcp_server": "",
      "dhcp_mac_defined_by_service": false,
      "dhcp_mac_address": "",
      "cable_modem_enabled": false,
      "cable_modem_ip": "",
      "cable_modem_mac_address": "",
      "cable_modem_gateway": "",
      "latitude": "18.0012067",
      "longitude": "-93.37323390000002",
      "address_street": "",
      "address_number": "",
      "address_city": "Cardenas Tabasco",
      "address_state": "",
      "address_country": "Mexico",
      "address_additional_data": "",
      "details": "",
      "mikrotik_interface_id": "47323835-a1c2-4b44-82bd-faf9fdb4c83d",
      "created_at": "2021-10-27T07:46:48.793-05:00",
      "updated_at": "2022-01-09T20:52:52.931-06:00"
    },
    {
      "id": "c61c7eca-c338-410e-be03-4a0348220d0b",
      "public_id": 2,
      "plan_id": "d6947884-bbff-493f-a726-3573999aa9c7",
      "client_id": "0ff96de0-4d95-43b6-9280-c98ee621c120",
      "server_configuration_id": "9e80aee9-f048-423f-82ed-5a5d349f8744",
      "state": "enabled",
      "start_date": "2021-10-27",
      "ip": "192.168.6.111",
      "netmask": "255.255.255.255",
      "mac_address": "A4:00:E2:BE:9B:29",
      "coverage_id": null,
      "node_id": null,
      "node_name": null,
      "cpe_port": "80",
      "cpe_protocol": "http",
      "ceil_dfl_percent": 70,
      "pppoe_enabled": false,
      "pppoe_username": "",
      "pppoe_password": "",
      "ppp_profile_id": null,
      "dhcp_enabled": true,
      "dhcp_server": "",
      "dhcp_mac_defined_by_service": false,
      "dhcp_mac_address": "",
      "cable_modem_enabled": false,
      "cable_modem_ip": "",
      "cable_modem_mac_address": "",
      "cable_modem_gateway": "",
      "latitude": "18.0012067",
      "longitude": "-93.37323390000002",
      "address_street": "",
      "address_number": "",
      "address_city": "Cardenas Tabasco",
      "address_state": "",
      "address_country": "Mexico",
      "address_additional_data": "",
      "details": "",
      "mikrotik_interface_id": "47323835-a1c2-4b44-82bd-faf9fdb4c83d",
      "created_at": "2021-10-27T07:46:48.904-05:00",
      "updated_at": "2022-01-25T11:32:57.914-06:00"
    },
    {
      "id": "c362eb1b-7d69-4cf9-8dec-22c9f2bd25a0",
      "public_id": 4,
      "plan_id": "d6947884-bbff-493f-a726-3573999aa9c7",
      "client_id": "4d569501-d32d-46c1-861f-dd85baeb8393",
      "server_configuration_id": "9e80aee9-f048-423f-82ed-5a5d349f8744",
      "state": "enabled",
      "start_date": "2021-10-27",
      "ip": "192.168.6.115",
      "netmask": "255.255.255.255",
      "mac_address": "30:E9:8E:F1:8A:D5",
      "coverage_id": null,
      "node_id": null,
      "node_name": null,
      "cpe_port": "80",
      "cpe_protocol": "http",
      "ceil_dfl_percent": 70,
      "pppoe_enabled": null,
      "pppoe_username": null,
      "pppoe_password": null,
      "ppp_profile_id": null,
      "dhcp_enabled": true,
      "dhcp_server": null,
      "dhcp_mac_defined_by_service": false,
      "dhcp_mac_address": null,
      "cable_modem_enabled": false,
      "cable_modem_ip": null,
      "cable_modem_mac_address": null,
      "cable_modem_gateway": null,
      "latitude": "18.0012067",
      "longitude": "-93.37323390000002",
      "address_street": "",
      "address_number": "",
      "address_city": "Cardenas Tabasco",
      "address_state": "",
      "address_country": "Mexico",
      "address_additional_data": null,
      "details": null,
      "mikrotik_interface_id": "47323835-a1c2-4b44-82bd-faf9fdb4c83d",
      "created_at": "2021-10-27T07:46:49.169-05:00",
      "updated_at": "2022-01-09T20:52:53.120-06:00"
    },
    {
      "id": "a83d59bc-7351-4686-ae18-7c54c9106ad1",
      "public_id": 5,
      "plan_id": "d6947884-bbff-493f-a726-3573999aa9c7",
      "client_id": "007f2e5d-b32c-409a-bd95-0ed989cd95d8",
      "server_configuration_id": "9e80aee9-f048-423f-82ed-5a5d349f8744",
      "state": "enabled",
      "start_date": "2021-10-27",
      "ip": "192.168.6.116",
      "netmask": "255.255.255.255",
      "mac_address": "5C:E8:83:28:D4:44",
      "coverage_id": null,
      "node_id": null,
      "node_name": null,
      "cpe_port": "80",
      "cpe_protocol": "http",
      "ceil_dfl_percent": 70,
      "pppoe_enabled": null,
      "pppoe_username": null,
      "pppoe_password": null,
      "ppp_profile_id": null,
      "dhcp_enabled": true,
      "dhcp_server": null,
      "dhcp_mac_defined_by_service": false,
      "dhcp_mac_address": null,
      "cable_modem_enabled": false,
      "cable_modem_ip": null,
      "cable_modem_mac_address": null,
      "cable_modem_gateway": null,
      "latitude": "18.0012067",
      "longitude": "-93.37323390000002",
      "address_street": "",
      "address_number": "",
      "address_city": "Cardenas Tabasco",
      "address_state": "",
      "address_country": "Mexico",
      "address_additional_data": null,
      "details": null,
      "mikrotik_interface_id": "47323835-a1c2-4b44-82bd-faf9fdb4c83d",
      "created_at": "2021-10-27T07:46:49.264-05:00",
      "updated_at": "2022-01-18T16:09:32.594-06:00"
    },
    {
      "id": "4a2a7343-9137-4966-ad50-91a8ef4bc80f",
      "public_id": 6,
      "plan_id": "d6947884-bbff-493f-a726-3573999aa9c7",
      "client_id": "d4baf437-14af-4554-92f7-cee3e3732a3d",
      "server_configuration_id": "9e80aee9-f048-423f-82ed-5a5d349f8744",
      "state": "enabled",
      "start_date": "2021-10-27",
      "ip": "192.168.6.117",
      "netmask": "255.255.255.255",
      "mac_address": "C8:A7:76:BF:6E:31",
      "coverage_id": null,
      "node_id": null,
      "node_name": null,
      "cpe_port": "80",
      "cpe_protocol": "http",
      "ceil_dfl_percent": 70,
      "pppoe_enabled": false,
      "pppoe_username": "",
      "pppoe_password": "",
      "ppp_profile_id": null,
      "dhcp_enabled": true,
      "dhcp_server": "",
      "dhcp_mac_defined_by_service": false,
      "dhcp_mac_address": "",
      "cable_modem_enabled": false,
      "cable_modem_ip": "",
      "cable_modem_mac_address": "",
      "cable_modem_gateway": "",
      "latitude": "18.0012067",
      "longitude": "-93.37323390000002",
      "address_street": "",
      "address_number": "",
      "address_city": "Cardenas Tabasco",
      "address_state": "",
      "address_country": "Mexico",
      "address_additional_data": "",
      "details": "",
      "mikrotik_interface_id": "47323835-a1c2-4b44-82bd-faf9fdb4c83d",
      "created_at": "2021-10-27T07:46:49.364-05:00",
      "updated_at": "2022-01-09T20:52:53.531-06:00"
    },
    {
      "id": "70ddbe6d-7a31-44e5-9490-a3b7d614128e",
      "public_id": 7,
      "plan_id": "8fdf2731-3dee-4604-94e2-2adfba472aa3",
      "client_id": "67691336-ce50-49d6-8263-e6f811e89ead",
      "server_configuration_id": "9e80aee9-f048-423f-82ed-5a5d349f8744",
      "state": "alerted",
      "start_date": "2021-10-27",
      "ip": "192.168.6.118",
      "netmask": "255.255.255.255",
      "mac_address": "C8:A7:76:BF:91:96",
      "coverage_id": null,
      "node_id": null,
      "node_name": null,
      "cpe_port": "80",
      "cpe_protocol": "http",
      "ceil_dfl_percent": 70,
      "pppoe_enabled": false,
      "pppoe_username": "",
      "pppoe_password": "",
      "ppp_profile_id": null,
      "dhcp_enabled": true,
      "dhcp_server": "",
      "dhcp_mac_defined_by_service": false,
      "dhcp_mac_address": "",
      "cable_modem_enabled": false,
      "cable_modem_ip": "",
      "cable_modem_mac_address": "",
      "cable_modem_gateway": "",
      "latitude": "18.0012067",
      "longitude": "-93.37323390000002",
      "address_street": "",
      "address_number": "",
      "address_city": "Cardenas Tabasco",
      "address_state": "",
      "address_country": "Mexico",
      "address_additional_data": "",
      "details": "",
      "mikrotik_interface_id": "47323835-a1c2-4b44-82bd-faf9fdb4c83d",
      "created_at": "2021-10-27T07:46:49.465-05:00",
      "updated_at": "2022-02-22T00:06:03.361-06:00"
    },
    {
      "id": "602a0750-1b10-4913-8306-6d23c3db437a",
      "public_id": 8,
      "plan_id": "d368c611-07d5-405d-ae83-3b63c0232f98",
      "client_id": "f9807114-f160-49bb-89e2-60ee093c67c6",
      "server_configuration_id": "9e80aee9-f048-423f-82ed-5a5d349f8744",
      "state": "enabled",
      "start_date": "2021-10-27",
      "ip": "192.168.6.120",
      "netmask": "255.255.255.255",
      "mac_address": "A4:00:E2:CE:C1:B2",
      "coverage_id": null,
      "node_id": null,
      "node_name": null,
      "cpe_port": "80",
      "cpe_protocol": "http",
      "ceil_dfl_percent": 70,
      "pppoe_enabled": false,
      "pppoe_username": "",
      "pppoe_password": "",
      "ppp_profile_id": null,
      "dhcp_enabled": true,
      "dhcp_server": "",
      "dhcp_mac_defined_by_service": false,
      "dhcp_mac_address": "",
      "cable_modem_enabled": false,
      "cable_modem_ip": "",
      "cable_modem_mac_address": "",
      "cable_modem_gateway": "",
      "latitude": "18.0012067",
      "longitude": "-93.37323390000002",
      "address_street": "",
      "address_number": "",
      "address_city": "Cardenas Tabasco",
      "address_state": "",
      "address_country": "Mexico",
      "address_additional_data": "",
      "details": "",
      "mikrotik_interface_id": "47323835-a1c2-4b44-82bd-faf9fdb4c83d",
      "created_at": "2021-10-27T07:46:49.563-05:00",
      "updated_at": "2022-01-09T20:52:53.719-06:00"
    },
    {
      "id": "d2821e95-99af-486e-a6c8-abfaa86ec53a",
      "public_id": 9,
      "plan_id": "8fdf2731-3dee-4604-94e2-2adfba472aa3",
      "client_id": "5f9ee77b-fe9d-4637-9d93-fa9d578d79d1",
      "server_configuration_id": "9e80aee9-f048-423f-82ed-5a5d349f8744",
      "state": "enabled",
      "start_date": "2021-10-27",
      "ip": "192.168.6.121",
      "netmask": "255.255.255.255",
      "mac_address": "C8:A7:76:BF:E5:31",
      "coverage_id": null,
      "node_id": null,
      "node_name": null,
      "cpe_port": "80",
      "cpe_protocol": "http",
      "ceil_dfl_percent": 70,
      "pppoe_enabled": false,
      "pppoe_username": "",
      "pppoe_password": "",
      "ppp_profile_id": null,
      "dhcp_enabled": true,
      "dhcp_server": "",
      "dhcp_mac_defined_by_service": false,
      "dhcp_mac_address": "",
      "cable_modem_enabled": false,
      "cable_modem_ip": "",
      "cable_modem_mac_address": "",
      "cable_modem_gateway": "",
      "latitude": "18.0012067",
      "longitude": "-93.37323390000002",
      "address_street": "",
      "address_number": "",
      "address_city": "Cardenas Tabasco",
      "address_state": "",
      "address_country": "Mexico",
      "address_additional_data": "",
      "details": "",
      "mikrotik_interface_id": "47323835-a1c2-4b44-82bd-faf9fdb4c83d",
      "created_at": "2021-10-27T07:46:49.661-05:00",
      "updated_at": "2022-01-19T08:32:49.636-06:00"
    },
    {
      "id": "0ae90e87-b86e-4950-b5e9-07e8163359a4",
      "public_id": 10,
      "plan_id": "d6947884-bbff-493f-a726-3573999aa9c7",
      "client_id": "91e0579b-4dc0-4b1d-844c-c45fbeb3b37b",
      "server_configuration_id": "9e80aee9-f048-423f-82ed-5a5d349f8744",
      "state": "enabled",
      "start_date": "2021-10-27",
      "ip": "192.168.6.122",
      "netmask": "255.255.255.255",
      "mac_address": "C8:A7:76:BF:25:7A",
      "coverage_id": null,
      "node_id": null,
      "node_name": null,
      "cpe_port": "80",
      "cpe_protocol": "http",
      "ceil_dfl_percent": 70,
      "pppoe_enabled": null,
      "pppoe_username": null,
      "pppoe_password": null,
      "ppp_profile_id": null,
      "dhcp_enabled": true,
      "dhcp_server": null,
      "dhcp_mac_defined_by_service": false,
      "dhcp_mac_address": null,
      "cable_modem_enabled": false,
      "cable_modem_ip": null,
      "cable_modem_mac_address": null,
      "cable_modem_gateway": null,
      "latitude": "18.0012067",
      "longitude": "-93.37323390000002",
      "address_street": "",
      "address_number": "",
      "address_city": "Cardenas Tabasco",
      "address_state": "",
      "address_country": "Mexico",
      "address_additional_data": null,
      "details": null,
      "mikrotik_interface_id": "47323835-a1c2-4b44-82bd-faf9fdb4c83d",
      "created_at": "2021-10-27T07:46:49.761-05:00",
      "updated_at": "2022-02-11T01:23:25.558-06:00"
    },
    {
      "id": "d166f52a-f7db-412a-8b6a-aa4405923ed3",
      "public_id": 11,
      "plan_id": "d6947884-bbff-493f-a726-3573999aa9c7",
      "client_id": "796fd710-1947-41c1-9243-e2140e582cc4",
      "server_configuration_id": "9e80aee9-f048-423f-82ed-5a5d349f8744",
      "state": "enabled",
      "start_date": "2021-10-27",
      "ip": "192.168.6.123",
      "netmask": "255.255.255.255",
      "mac_address": "C8:A7:76:BF:D8:60",
      "coverage_id": null,
      "node_id": null,
      "node_name": null,
      "cpe_port": "80",
      "cpe_protocol": "http",
      "ceil_dfl_percent": 70,
      "pppoe_enabled": null,
      "pppoe_username": null,
      "pppoe_password": null,
      "ppp_profile_id": null,
      "dhcp_enabled": true,
      "dhcp_server": null,
      "dhcp_mac_defined_by_service": false,
      "dhcp_mac_address": null,
      "cable_modem_enabled": false,
      "cable_modem_ip": null,
      "cable_modem_mac_address": null,
      "cable_modem_gateway": null,
      "latitude": "18.0012067",
      "longitude": "-93.37323390000002",
      "address_street": "",
      "address_number": "",
      "address_city": "Cardenas Tabasco",
      "address_state": "",
      "address_country": "Mexico",
      "address_additional_data": null,
      "details": null,
      "mikrotik_interface_id": "47323835-a1c2-4b44-82bd-faf9fdb4c83d",
      "created_at": "2021-10-27T07:46:49.897-05:00",
      "updated_at": "2022-01-09T20:52:54.030-06:00"
    },
    {
      "id": "8b425c50-a58e-4aae-9202-255d8eae576b",
      "public_id": 12,
      "plan_id": "d6947884-bbff-493f-a726-3573999aa9c7",
      "client_id": "e40da33d-64ba-4293-8ec1-f0534b39c896",
      "server_configuration_id": "9e80aee9-f048-423f-82ed-5a5d349f8744",
      "state": "enabled",
      "start_date": "2021-10-27",
      "ip": "192.168.6.124",
      "netmask": "255.255.255.255",
      "mac_address": "7C:1C:F1:78:69:C9",
      "coverage_id": null,
      "node_id": null,
      "node_name": null,
      "cpe_port": "80",
      "cpe_protocol": "http",
      "ceil_dfl_percent": 70,
      "pppoe_enabled": false,
      "pppoe_username": "",
      "pppoe_password": "",
      "ppp_profile_id": null,
      "dhcp_enabled": true,
      "dhcp_server": "",
      "dhcp_mac_defined_by_service": false,
      "dhcp_mac_address": "",
      "cable_modem_enabled": false,
      "cable_modem_ip": "",
      "cable_modem_mac_address": "",
      "cable_modem_gateway": "",
      "latitude": "18.0012067",
      "longitude": "-93.37323390000002",
      "address_street": "",
      "address_number": "",
      "address_city": "Cardenas Tabasco",
      "address_state": "",
      "address_country": "Mexico",
      "address_additional_data": "",
      "details": "",
      "mikrotik_interface_id": "47323835-a1c2-4b44-82bd-faf9fdb4c83d",
      "created_at": "2021-10-27T07:46:50.018-05:00",
      "updated_at": "2022-02-06T21:18:04.901-06:00"
    },
    {
      "id": "bb9c467f-dd51-4924-9e15-b89c39866edc",
      "public_id": 13,
      "plan_id": "d6947884-bbff-493f-a726-3573999aa9c7",
      "client_id": "3c9b8c03-6ce9-4c9a-887a-140f787c9502",
      "server_configuration_id": "9e80aee9-f048-423f-82ed-5a5d349f8744",
      "state": "enabled",
      "start_date": "2021-10-27",
      "ip": "192.168.6.113",
      "netmask": "255.255.255.255",
      "mac_address": "A4:00:E2:BE:7C:BF",
      "coverage_id": null,
      "node_id": null,
      "node_name": null,
      "cpe_port": "80",
      "cpe_protocol": "http",
      "ceil_dfl_percent": 70,
      "pppoe_enabled": false,
      "pppoe_username": "",
      "pppoe_password": "",
      "ppp_profile_id": null,
      "dhcp_enabled": true,
      "dhcp_server": "",
      "dhcp_mac_defined_by_service": false,
      "dhcp_mac_address": "",
      "cable_modem_enabled": false,
      "cable_modem_ip": "",
      "cable_modem_mac_address": "",
      "cable_modem_gateway": "",
      "latitude": "18.0012067",
      "longitude": "-93.37323390000002",
      "address_street": "",
      "address_number": "",
      "address_city": "Cardenas Tabasco",
      "address_state": "",
      "address_country": "Mexico",
      "address_additional_data": "",
      "details": "",
      "mikrotik_interface_id": "47323835-a1c2-4b44-82bd-faf9fdb4c83d",
      "created_at": "2021-10-27T07:46:50.117-05:00",
      "updated_at": "2021-11-18T15:07:50.955-06:00"
    },
    {
      "id": "d5909bad-ad51-4148-8f5e-6455be983f37",
      "public_id": 14,
      "plan_id": "8fdf2731-3dee-4604-94e2-2adfba472aa3",
      "client_id": "3088ef29-22c4-40a1-99b5-3d58acd65e21",
      "server_configuration_id": "9e80aee9-f048-423f-82ed-5a5d349f8744",
      "state": "enabled",
      "start_date": "2021-10-27",
      "ip": "192.168.6.126",
      "netmask": "255.255.255.255",
      "mac_address": "C8:A7:76:BE:79:49",
      "coverage_id": null,
      "node_id": null,
      "node_name": null,
      "cpe_port": "80",
      "cpe_protocol": "http",
      "ceil_dfl_percent": 70,
      "pppoe_enabled": false,
      "pppoe_username": "",
      "pppoe_password": "",
      "ppp_profile_id": null,
      "dhcp_enabled": true,
      "dhcp_server": "",
      "dhcp_mac_defined_by_service": false,
      "dhcp_mac_address": "",
      "cable_modem_enabled": false,
      "cable_modem_ip": "",
      "cable_modem_mac_address": "",
      "cable_modem_gateway": "",
      "latitude": "18.0012067",
      "longitude": "-93.37323390000002",
      "address_street": "",
      "address_number": "",
      "address_city": "Cardenas Tabasco",
      "address_state": "",
      "address_country": "Mexico",
      "address_additional_data": "",
      "details": "",
      "mikrotik_interface_id": "47323835-a1c2-4b44-82bd-faf9fdb4c83d",
      "created_at": "2021-10-27T07:46:50.217-05:00",
      "updated_at": "2022-01-09T20:52:54.317-06:00"
    },
    {
      "id": "ea2ae8bd-5d65-4554-b091-b49e40bbf665",
      "public_id": 15,
      "plan_id": "d6947884-bbff-493f-a726-3573999aa9c7",
      "client_id": "f34afb62-7155-47c5-ac7e-02188e41f2e1",
      "server_configuration_id": "9e80aee9-f048-423f-82ed-5a5d349f8744",
      "state": "enabled",
      "start_date": "2021-10-27",
      "ip": "192.168.6.127",
      "netmask": "255.255.255.255",
      "mac_address": "C8:A7:76:65:A0:92",
      "coverage_id": null,
      "node_id": null,
      "node_name": null,
      "cpe_port": "80",
      "cpe_protocol": "http",
      "ceil_dfl_percent": 70,
      "pppoe_enabled": null,
      "pppoe_username": null,
      "pppoe_password": null,
      "ppp_profile_id": null,
      "dhcp_enabled": true,
      "dhcp_server": null,
      "dhcp_mac_defined_by_service": false,
      "dhcp_mac_address": null,
      "cable_modem_enabled": false,
      "cable_modem_ip": null,
      "cable_modem_mac_address": null,
      "cable_modem_gateway": null,
      "latitude": "18.0012067",
      "longitude": "-93.37323390000002",
      "address_street": "",
      "address_number": "",
      "address_city": "Cardenas Tabasco",
      "address_state": "",
      "address_country": "Mexico",
      "address_additional_data": null,
      "details": null,
      "mikrotik_interface_id": "47323835-a1c2-4b44-82bd-faf9fdb4c83d",
      "created_at": "2021-10-27T07:46:50.346-05:00",
      "updated_at": "2022-01-09T20:52:54.425-06:00"
    },
    {
      "id": "c61f8ed2-809e-4527-94b6-ec848f12acbb",
      "public_id": 16,
      "plan_id": "d6947884-bbff-493f-a726-3573999aa9c7",
      "client_id": "b734ba51-6fa0-4b08-b18e-bc2e33f318ad",
      "server_configuration_id": "9e80aee9-f048-423f-82ed-5a5d349f8744",
      "state": "enabled",
      "start_date": "2021-10-27",
      "ip": "192.168.6.128",
      "netmask": "255.255.255.255",
      "mac_address": "1C:20:DB:52:CF:0B",
      "coverage_id": null,
      "node_id": null,
      "node_name": null,
      "cpe_port": "80",
      "cpe_protocol": "http",
      "ceil_dfl_percent": 70,
      "pppoe_enabled": null,
      "pppoe_username": null,
      "pppoe_password": null,
      "ppp_profile_id": null,
      "dhcp_enabled": true,
      "dhcp_server": null,
      "dhcp_mac_defined_by_service": false,
      "dhcp_mac_address": null,
      "cable_modem_enabled": false,
      "cable_modem_ip": null,
      "cable_modem_mac_address": null,
      "cable_modem_gateway": null,
      "latitude": "18.0012067",
      "longitude": "-93.37323390000002",
      "address_street": "",
      "address_number": "",
      "address_city": "Cardenas Tabasco",
      "address_state": "",
      "address_country": "Mexico",
      "address_additional_data": null,
      "details": null,
      "mikrotik_interface_id": "47323835-a1c2-4b44-82bd-faf9fdb4c83d",
      "created_at": "2021-10-27T07:46:50.441-05:00",
      "updated_at": "2022-02-02T11:37:26.262-06:00"
    },
    {
      "id": "c556fc10-9fc4-4517-a906-f31addc7e639",
      "public_id": 17,
      "plan_id": "d6947884-bbff-493f-a726-3573999aa9c7",
      "client_id": "64546961-4fba-4539-93b6-aff9c1cf1109",
      "server_configuration_id": "9e80aee9-f048-423f-82ed-5a5d349f8744",
      "state": "enabled",
      "start_date": "2021-10-27",
      "ip": "192.168.6.129",
      "netmask": "255.255.255.255",
      "mac_address": "D0:C6:5B:24:6F:A6",
      "coverage_id": null,
      "node_id": null,
      "node_name": null,
      "cpe_port": "80",
      "cpe_protocol": "http",
      "ceil_dfl_percent": 70,
      "pppoe_enabled": null,
      "pppoe_username": null,
      "pppoe_password": null,
      "ppp_profile_id": null,
      "dhcp_enabled": true,
      "dhcp_server": null,
      "dhcp_mac_defined_by_service": false,
      "dhcp_mac_address": null,
      "cable_modem_enabled": false,
      "cable_modem_ip": null,
      "cable_modem_mac_address": null,
      "cable_modem_gateway": null,
      "latitude": "18.0012067",
      "longitude": "-93.37323390000002",
      "address_street": "",
      "address_number": "",
      "address_city": "Cardenas Tabasco",
      "address_state": "",
      "address_country": "Mexico",
      "address_additional_data": null,
      "details": null,
      "mikrotik_interface_id": "47323835-a1c2-4b44-82bd-faf9fdb4c83d",
      "created_at": "2021-10-27T07:46:50.568-05:00",
      "updated_at": "2022-01-09T20:52:54.715-06:00"
    },
    {
      "id": "9ae48c03-2ca9-4609-a9b0-3662da5f417b",
      "public_id": 18,
      "plan_id": "d6947884-bbff-493f-a726-3573999aa9c7",
      "client_id": "7738067a-c0bc-4306-9bf9-11ab789270e9",
      "server_configuration_id": "9e80aee9-f048-423f-82ed-5a5d349f8744",
      "state": "enabled",
      "start_date": "2021-10-27",
      "ip": "192.168.6.130",
      "netmask": "255.255.255.255",
      "mac_address": "C8:A7:76:BF:E4:98",
      "coverage_id": null,
      "node_id": null,
      "node_name": null,
      "cpe_port": "80",
      "cpe_protocol": "http",
      "ceil_dfl_percent": 70,
      "pppoe_enabled": null,
      "pppoe_username": null,
      "pppoe_password": null,
      "ppp_profile_id": null,
      "dhcp_enabled": true,
      "dhcp_server": null,
      "dhcp_mac_defined_by_service": false,
      "dhcp_mac_address": null,
      "cable_modem_enabled": false,
      "cable_modem_ip": null,
      "cable_modem_mac_address": null,
      "cable_modem_gateway": null,
      "latitude": "18.0012067",
      "longitude": "-93.37323390000002",
      "address_street": "",
      "address_number": "",
      "address_city": "Cardenas Tabasco",
      "address_state": "",
      "address_country": "Mexico",
      "address_additional_data": null,
      "details": null,
      "mikrotik_interface_id": "47323835-a1c2-4b44-82bd-faf9fdb4c83d",
      "created_at": "2021-10-27T07:46:50.668-05:00",
      "updated_at": "2022-01-09T20:52:54.812-06:00"
    },
    {
      "id": "2d1479ae-92c1-4243-98c2-36bd1dab16fd",
      "public_id": 19,
      "plan_id": "d6947884-bbff-493f-a726-3573999aa9c7",
      "client_id": "155170a7-ec98-4a57-96d0-84bcbe2e28d2",
      "server_configuration_id": "9e80aee9-f048-423f-82ed-5a5d349f8744",
      "state": "enabled",
      "start_date": "2021-10-27",
      "ip": "192.168.6.131",
      "netmask": "255.255.255.255",
      "mac_address": "C8:A7:76:BF:94:F9",
      "coverage_id": null,
      "node_id": null,
      "node_name": null,
      "cpe_port": "80",
      "cpe_protocol": "http",
      "ceil_dfl_percent": 70,
      "pppoe_enabled": null,
      "pppoe_username": null,
      "pppoe_password": null,
      "ppp_profile_id": null,
      "dhcp_enabled": true,
      "dhcp_server": null,
      "dhcp_mac_defined_by_service": false,
      "dhcp_mac_address": null,
      "cable_modem_enabled": false,
      "cable_modem_ip": null,
      "cable_modem_mac_address": null,
      "cable_modem_gateway": null,
      "latitude": "18.0012067",
      "longitude": "-93.37323390000002",
      "address_street": "",
      "address_number": "",
      "address_city": "Cardenas Tabasco",
      "address_state": "",
      "address_country": "Mexico",
      "address_additional_data": null,
      "details": null,
      "mikrotik_interface_id": "47323835-a1c2-4b44-82bd-faf9fdb4c83d",
      "created_at": "2021-10-27T07:46:50.767-05:00",
      "updated_at": "2022-02-07T08:50:40.729-06:00"
    },
    {
      "id": "ca1c303f-12de-4bcf-959e-e5c11e17f682",
      "public_id": 20,
      "plan_id": "8fdf2731-3dee-4604-94e2-2adfba472aa3",
      "client_id": "88fa046b-b516-4e9d-9b50-42e857719516",
      "server_configuration_id": "9e80aee9-f048-423f-82ed-5a5d349f8744",
      "state": "enabled",
      "start_date": "2021-10-27",
      "ip": "192.168.6.132",
      "netmask": "255.255.255.255",
      "mac_address": "5C:E8:83:A8:2C:CB",
      "coverage_id": null,
      "node_id": null,
      "node_name": null,
      "cpe_port": "80",
      "cpe_protocol": "http",
      "ceil_dfl_percent": 70,
      "pppoe_enabled": false,
      "pppoe_username": "",
      "pppoe_password": "",
      "ppp_profile_id": null,
      "dhcp_enabled": true,
      "dhcp_server": "",
      "dhcp_mac_defined_by_service": false,
      "dhcp_mac_address": "",
      "cable_modem_enabled": false,
      "cable_modem_ip": "",
      "cable_modem_mac_address": "",
      "cable_modem_gateway": "",
      "latitude": "18.0012067",
      "longitude": "-93.37323390000002",
      "address_street": "",
      "address_number": "",
      "address_city": "Cardenas Tabasco",
      "address_state": "",
      "address_country": "Mexico",
      "address_additional_data": "",
      "details": "",
      "mikrotik_interface_id": "47323835-a1c2-4b44-82bd-faf9fdb4c83d",
      "created_at": "2021-10-27T07:46:50.861-05:00",
      "updated_at": "2022-02-03T01:16:11.069-06:00"
    },
    {
      "id": "1579b6fc-c40c-4cd8-8c13-22a3396be4e0",
      "public_id": 21,
      "plan_id": "d6947884-bbff-493f-a726-3573999aa9c7",
      "client_id": "4931b345-3937-44cf-bb26-55d110f62dd1",
      "server_configuration_id": "9e80aee9-f048-423f-82ed-5a5d349f8744",
      "state": "enabled",
      "start_date": "2021-10-27",
      "ip": "192.168.6.133",
      "netmask": "255.255.255.255",
      "mac_address": "5C:E8:83:26:0B:65",
      "coverage_id": null,
      "node_id": null,
      "node_name": null,
      "cpe_port": "80",
      "cpe_protocol": "http",
      "ceil_dfl_percent": 70,
      "pppoe_enabled": false,
      "pppoe_username": "",
      "pppoe_password": "",
      "ppp_profile_id": null,
      "dhcp_enabled": true,
      "dhcp_server": "",
      "dhcp_mac_defined_by_service": false,
      "dhcp_mac_address": "",
      "cable_modem_enabled": false,
      "cable_modem_ip": "",
      "cable_modem_mac_address": "",
      "cable_modem_gateway": "",
      "latitude": "18.0012067",
      "longitude": "-93.37323390000002",
      "address_street": "",
      "address_number": "",
      "address_city": "Cardenas Tabasco",
      "address_state": "",
      "address_country": "Mexico",
      "address_additional_data": "",
      "details": "",
      "mikrotik_interface_id": "47323835-a1c2-4b44-82bd-faf9fdb4c83d",
      "created_at": "2021-10-27T07:46:50.953-05:00",
      "updated_at": "2022-01-20T08:03:08.911-06:00"
    }
  ]
}